[gd_scene load_steps=2 format=2]

[ext_resource path="res://blokoj/kosmosxipoj/scenoj/baseSpaceship/cargo.glb" type="PackedScene" id=1]

[node name="cargo" instance=ExtResource( 1 )]

[node name="cargo" parent="." index="0"]
transform = Transform( -0.0166846, 0, 0.999861, 0, 1, 0, -0.999861, 0, -0.0166846, 0, 2, 8 )
