[gd_scene load_steps=4 format=2]

[ext_resource path="res://kerno/menuo/resursoj/fonts/18957.otf" type="DynamicFontData" id=3]
[ext_resource path="res://kerno/menuo/resursoj/fonts/Buttons_stylel.tres" type="StyleBox" id=4]

[sub_resource type="DynamicFont" id=1]
font_data = ExtResource( 3 )

[node name="Servilo" type="Button"]
margin_top = 70.0
margin_right = 32.0
margin_bottom = 102.0
custom_styles/focus = ExtResource( 4 )
custom_fonts/font = SubResource( 1 )
__meta__ = {
"_edit_group_": true,
"_edit_use_anchors_": false
}
